﻿<?xml version="1.0" encoding="utf-8"?>
<svg version="1.1" xmlns:xlink="http://www.w3.org/1999/xlink" width="12px" height="12px" viewBox="231 236  12 12" xmlns="http://www.w3.org/2000/svg">
  <path d="M 237 236  C 240.36 236  243 238.64  243 242  C 243 245.36  240.36 248  237 248  C 233.64 248  231 245.36  231 242  C 231 238.64  233.64 236  237 236  Z " fill-rule="nonzero" fill="#ffffff" stroke="none" />
  <path d="M 237 236.5  C 240.08 236.5  242.5 238.92  242.5 242  C 242.5 245.08  240.08 247.5  237 247.5  C 233.92 247.5  231.5 245.08  231.5 242  C 231.5 238.92  233.92 236.5  237 236.5  Z " stroke-width="1" stroke="#797979" fill="none" />
</svg>