﻿<?xml version="1.0" encoding="utf-8"?>
<svg version="1.1" xmlns:xlink="http://www.w3.org/1999/xlink" width="12px" height="12px" viewBox="388 236  12 12" xmlns="http://www.w3.org/2000/svg">
  <path d="M 394 236  C 397.36 236  400 238.64  400 242  C 400 245.36  397.36 248  394 248  C 390.64 248  388 245.36  388 242  C 388 238.64  390.64 236  394 236  Z " fill-rule="nonzero" fill="#f0f0f0" stroke="none" />
  <path d="M 394 236.5  C 397.08 236.5  399.5 238.92  399.5 242  C 399.5 245.08  397.08 247.5  394 247.5  C 390.92 247.5  388.5 245.08  388.5 242  C 388.5 238.92  390.92 236.5  394 236.5  Z " stroke-width="1" stroke="#797979" fill="none" />
</svg>