﻿<?xml version="1.0" encoding="utf-8"?>
<svg version="1.1" xmlns:xlink="http://www.w3.org/1999/xlink" width="12px" height="12px" viewBox="198 150  12 12" xmlns="http://www.w3.org/2000/svg">
  <path d="M 204 150  C 207.36 150  210 152.64  210 156  C 210 159.36  207.36 162  204 162  C 200.64 162  198 159.36  198 156  C 198 152.64  200.64 150  204 150  Z " fill-rule="nonzero" fill="#f0f0f0" stroke="none" />
  <path d="M 204 150.5  C 207.08 150.5  209.5 152.92  209.5 156  C 209.5 159.08  207.08 161.5  204 161.5  C 200.92 161.5  198.5 159.08  198.5 156  C 198.5 152.92  200.92 150.5  204 150.5  Z " stroke-width="1" stroke="#797979" fill="none" />
  <path d="M 204 159  C 202.32 159  201 157.68  201 156  C 201 154.32  202.32 153  204 153  C 205.68 153  207 154.32  207 156  C 207 157.68  205.68 159  204 159  " fill-rule="nonzero" fill="#797979" stroke="none" />
</svg>