﻿<?xml version="1.0" encoding="utf-8"?>
<svg version="1.1" xmlns:xlink="http://www.w3.org/1999/xlink" width="14px" height="14px" viewBox="264 307  14 14" xmlns="http://www.w3.org/2000/svg">
  <path d="M 264.5 307.5  L 277.5 307.5  L 277.5 320.5  L 264.5 320.5  L 264.5 307.5  Z " fill-rule="nonzero" fill="#ffffff" stroke="none" />
  <path d="M 264.5 307.5  L 277.5 307.5  L 277.5 320.5  L 264.5 320.5  L 264.5 307.5  Z " stroke-width="1" stroke="#797979" fill="none" />
  <path d="M 267.5 314.5  L 270.5 317.5  " stroke-width="3" stroke="#797979" fill="none" />
  <path d="M 270.5 317.5  L 275.5 310.5  " stroke-width="3" stroke="#797979" fill="none" />
</svg>