﻿<?xml version="1.0" encoding="utf-8"?>
<svg version="1.1" xmlns:xlink="http://www.w3.org/1999/xlink" width="14px" height="14px" viewBox="274 213  14 14" xmlns="http://www.w3.org/2000/svg">
  <path d="M 274.5 213.5  L 287.5 213.5  L 287.5 226.5  L 274.5 226.5  L 274.5 213.5  Z " fill-rule="nonzero" fill="#ffffff" stroke="none" />
  <path d="M 274.5 213.5  L 287.5 213.5  L 287.5 226.5  L 274.5 226.5  L 274.5 213.5  Z " stroke-width="1" stroke="#797979" fill="none" />
  <path d="M 277.5 220.5  L 280.5 223.5  " stroke-width="3" stroke="#797979" fill="none" />
  <path d="M 280.5 223.5  L 285.5 216.5  " stroke-width="3" stroke="#797979" fill="none" />
</svg>