﻿<?xml version="1.0" encoding="utf-8"?>
<svg version="1.1" xmlns:xlink="http://www.w3.org/1999/xlink" width="14px" height="14px" viewBox="284 304  14 14" xmlns="http://www.w3.org/2000/svg">
  <path d="M 284.5 304.5  L 297.5 304.5  L 297.5 317.5  L 284.5 317.5  L 284.5 304.5  Z " fill-rule="nonzero" fill="#f0f0f0" stroke="none" />
  <path d="M 284.5 304.5  L 297.5 304.5  L 297.5 317.5  L 284.5 317.5  L 284.5 304.5  Z " stroke-width="1" stroke="#797979" fill="none" />
</svg>