﻿<?xml version="1.0" encoding="utf-8"?>
<svg version="1.1" xmlns:xlink="http://www.w3.org/1999/xlink" width="65px" height="29px" xmlns="http://www.w3.org/2000/svg">
  <defs>
    <mask fill="white" id="clip2">
      <path d="M 0 24  L 0 5  C 0 2.19999999999999  2.20000000000005 0  5 0  L 43.0588235294117 0  L 60 0  C 62.8 0  65 2.19999999999999  65 5  L 65 24  C 65 26.8  62.8 29  60 29  L 5 29  C 2.20000000000005 29  0 26.8  0 24  Z " fill-rule="evenodd" />
    </mask>
  </defs>
  <g transform="matrix(1 0 0 1 -1246 -147 )">
    <path d="M 0 24  L 0 5  C 0 2.19999999999999  2.20000000000005 0  5 0  L 43.0588235294117 0  L 60 0  C 62.8 0  65 2.19999999999999  65 5  L 65 24  C 65 26.8  62.8 29  60 29  L 5 29  C 2.20000000000005 29  0 26.8  0 24  Z " fill-rule="nonzero" fill="#f27979" stroke="none" transform="matrix(1 0 0 1 1246 147 )" />
    <path d="M 0 24  L 0 5  C 0 2.19999999999999  2.20000000000005 0  5 0  L 43.0588235294117 0  L 60 0  C 62.8 0  65 2.19999999999999  65 5  L 65 24  C 65 26.8  62.8 29  60 29  L 5 29  C 2.20000000000005 29  0 26.8  0 24  Z " stroke-width="2" stroke="#797979" fill="none" transform="matrix(1 0 0 1 1246 147 )" mask="url(#clip2)" />
  </g>
</svg>