﻿<?xml version="1.0" encoding="utf-8"?>
<svg version="1.1" xmlns:xlink="http://www.w3.org/1999/xlink" width="12px" height="12px" viewBox="307 726  12 12" xmlns="http://www.w3.org/2000/svg">
  <path d="M 313 726  C 316.36 726  319 728.64  319 732  C 319 735.36  316.36 738  313 738  C 309.64 738  307 735.36  307 732  C 307 728.64  309.64 726  313 726  Z " fill-rule="nonzero" fill="#f0f0f0" stroke="none" />
  <path d="M 313 726.5  C 316.08 726.5  318.5 728.92  318.5 732  C 318.5 735.08  316.08 737.5  313 737.5  C 309.92 737.5  307.5 735.08  307.5 732  C 307.5 728.92  309.92 726.5  313 726.5  Z " stroke-width="1" stroke="#797979" fill="none" />
  <path d="M 313 735  C 311.32 735  310 733.68  310 732  C 310 730.32  311.32 729  313 729  C 314.68 729  316 730.32  316 732  C 316 733.68  314.68 735  313 735  " fill-rule="nonzero" fill="#797979" stroke="none" />
</svg>