﻿<?xml version="1.0" encoding="utf-8"?>
<svg version="1.1" xmlns:xlink="http://www.w3.org/1999/xlink" width="30px" height="25px" xmlns="http://www.w3.org/2000/svg">
  <g transform="matrix(1 0 0 1 -577 -13 )">
    <path d="M 13.9910313901345 18.75  L 14.932735426009 18.75  L 16.8834080717489 16.6903409090909  L 14.3273542600897 13.9914772727273  L 12.3766816143498 16.0511363636364  L 12.3766816143498 17.0454545454545  L 13.9910313901345 17.0454545454545  L 13.9910313901345 18.75  Z M 22.3150224215247 6.55184659090909  C 22.5056053811659 6.35061553030303  22.5112107623318 6.15530303030303  22.3318385650224 5.96590909090909  C 22.152466367713 5.77651515151515  21.9674887892377 5.78243371212121  21.7769058295964 5.98366477272727  L 15.8912556053812 12.1981534090909  C 15.7006726457399 12.399384469697  15.695067264574 12.594696969697  15.8744394618834 12.7840909090909  C 16.0538116591928 12.9734848484848  16.2387892376682 12.9675662878788  16.4293721973094 12.7663352272727  L 22.3150224215247 6.55184659090909  Z M 23.3408071748879 15.9978693181818  C 23.5650224215247 16.0925662878788  23.677130044843 16.2642045454545  23.677130044843 16.5127840909091  L 23.677130044843 19.8863636363636  C 23.677130044843 21.2949810606061  23.2034753363229 22.4994081439394  22.2561659192825 23.4996448863636  C 21.3088565022422 24.4998816287879  20.1681614349776 25  18.8340807174888 25  L 4.84304932735426 25  C 3.50896860986547 25  2.3682735426009 24.4998816287879  1.42096412556054 23.4996448863636  C 0.473654708520179 22.4994081439394  0 21.2949810606061  0 19.8863636363636  L 0 5.11363636363637  C 0 3.70501893939394  0.473654708520179 2.50059185606061  1.42096412556054 1.50035511363636  C 2.3682735426009 0.500118371212119  3.50896860986547 0  4.84304932735426 0  L 18.8340807174888 0  C 19.5403587443946 0  20.1961883408072 0.147964015151514  20.8015695067265 0.443892045454544  C 20.969730941704 0.526751893939392  21.0706278026906 0.662878787878787  21.1042600896861 0.852272727272727  C 21.1378923766816 1.05350378787879  21.0874439461883 1.22514204545454  20.9529147982063 1.3671875  L 20.1289237668161 2.23721590909091  C 19.9719730941704 2.40293560606061  19.792600896861 2.45028409090909  19.5908071748879 2.37926136363636  C 19.3329596412556 2.30823863636364  19.0807174887892 2.27272727272727  18.8340807174888 2.27272727272727  L 4.84304932735426 2.27272727272727  C 4.10313901345291 2.27272727272727  3.46973094170404 2.55089962121212  2.94282511210762 3.10724431818182  C 2.41591928251121 3.66358901515151  2.152466367713 4.33238636363637  2.152466367713 5.11363636363637  L 2.152466367713 19.8863636363636  C 2.152466367713 20.6676136363636  2.41591928251121 21.3364109848485  2.94282511210762 21.8927556818182  C 3.46973094170404 22.4491003787879  4.10313901345291 22.7272727272727  4.84304932735426 22.7272727272727  L 18.8340807174888 22.7272727272727  C 19.5739910313901 22.7272727272727  20.207399103139 22.4491003787879  20.7343049327354 21.8927556818182  C 21.2612107623318 21.3364109848485  21.52466367713 20.6676136363636  21.52466367713 19.8863636363636  L 21.52466367713 17.6491477272727  C 21.52466367713 17.4952651515151  21.5751121076233 17.3650568181818  21.6760089686099 17.2585227272727  L 22.7522421524664 16.1221590909091  C 22.9204035874439 15.9446022727273  23.1165919282511 15.9031723484848  23.3408071748879 15.9978693181818  Z M 10.762331838565 15.3409090909091  L 22.0627802690583 3.40909090909091  L 26.9058295964126 8.52272727272727  L 15.6053811659193 20.4545454545455  L 10.762331838565 20.4545454545455  L 10.762331838565 15.3409090909091  Z M 30 4.54545454545454  C 30 5.01893939393939  29.8430493273543 5.42140151515151  29.5291479820628 5.75284090909091  L 27.9820627802691 7.38636363636363  L 23.1390134529148 2.27272727272727  L 24.6860986547085 0.639204545454544  C 25 0.307765151515149  25.3811659192825 0.142045454545456  25.8295964125561 0.142045454545456  C 26.2780269058296 0.142045454545456  26.6591928251121 0.307765151515149  26.9730941704036 0.639204545454544  L 29.5291479820628 3.33806818181818  C 29.8430493273543 3.66950757575757  30 4.0719696969697  30 4.54545454545454  Z " fill-rule="nonzero" fill="#000000" stroke="none" transform="matrix(1 0 0 1 577 13 )" />
  </g>
</svg>