﻿<?xml version="1.0" encoding="utf-8"?>
<svg version="1.1" xmlns:xlink="http://www.w3.org/1999/xlink" width="12px" height="12px" viewBox="374 449  12 12" xmlns="http://www.w3.org/2000/svg">
  <path d="M 380 449  C 383.36 449  386 451.64  386 455  C 386 458.36  383.36 461  380 461  C 376.64 461  374 458.36  374 455  C 374 451.64  376.64 449  380 449  Z " fill-rule="nonzero" fill="#f0f0f0" stroke="none" />
  <path d="M 380 449.5  C 383.08 449.5  385.5 451.92  385.5 455  C 385.5 458.08  383.08 460.5  380 460.5  C 376.92 460.5  374.5 458.08  374.5 455  C 374.5 451.92  376.92 449.5  380 449.5  Z " stroke-width="1" stroke="#797979" fill="none" />
  <path d="M 380 458  C 378.32 458  377 456.68  377 455  C 377 453.32  378.32 452  380 452  C 381.68 452  383 453.32  383 455  C 383 456.68  381.68 458  380 458  " fill-rule="nonzero" fill="#797979" stroke="none" />
</svg>