﻿<?xml version="1.0" encoding="utf-8"?>
<svg version="1.1" xmlns:xlink="http://www.w3.org/1999/xlink" width="12px" height="12px" viewBox="343 289  12 12" xmlns="http://www.w3.org/2000/svg">
  <path d="M 343.5 289.5  L 354.5 289.5  L 354.5 300.5  L 343.5 300.5  L 343.5 289.5  Z " fill-rule="nonzero" fill="#ffffff" stroke="none" />
  <path d="M 343.5 289.5  L 354.5 289.5  L 354.5 300.5  L 343.5 300.5  L 343.5 289.5  Z " stroke-width="1" stroke="#797979" fill="none" />
  <path d="M 345.571428571429 295  L 348.142857142857 297.571428571429  " stroke-width="2.57142857142857" stroke="#797979" fill="none" />
  <path d="M 348.142857142857 297.571428571429  L 352.428571428571 291.571428571429  " stroke-width="2.57142857142857" stroke="#797979" fill="none" />
</svg>