﻿<?xml version="1.0" encoding="utf-8"?>
<svg version="1.1" xmlns:xlink="http://www.w3.org/1999/xlink" width="12px" height="12px" viewBox="243 403  12 12" xmlns="http://www.w3.org/2000/svg">
  <path d="M 243.5 403.5  L 254.5 403.5  L 254.5 414.5  L 243.5 414.5  L 243.5 403.5  Z " fill-rule="nonzero" fill="#f0f0f0" stroke="none" />
  <path d="M 243.5 403.5  L 254.5 403.5  L 254.5 414.5  L 243.5 414.5  L 243.5 403.5  Z " stroke-width="1" stroke="#797979" fill="none" />
  <path d="M 245.571428571429 409  L 248.142857142857 411.571428571429  " stroke-width="2.57142857142857" stroke="#797979" fill="none" />
  <path d="M 248.142857142857 411.571428571429  L 252.428571428571 405.571428571429  " stroke-width="2.57142857142857" stroke="#797979" fill="none" />
</svg>