﻿<?xml version="1.0" encoding="utf-8"?>
<svg version="1.1" xmlns:xlink="http://www.w3.org/1999/xlink" width="12px" height="12px" viewBox="218 386  12 12" xmlns="http://www.w3.org/2000/svg">
  <path d="M 224 386  C 227.36 386  230 388.64  230 392  C 230 395.36  227.36 398  224 398  C 220.64 398  218 395.36  218 392  C 218 388.64  220.64 386  224 386  Z " fill-rule="nonzero" fill="#ffffff" stroke="none" />
  <path d="M 224 386.5  C 227.08 386.5  229.5 388.92  229.5 392  C 229.5 395.08  227.08 397.5  224 397.5  C 220.92 397.5  218.5 395.08  218.5 392  C 218.5 388.92  220.92 386.5  224 386.5  Z " stroke-width="1" stroke="#797979" fill="none" />
  <path d="M 224 395  C 222.32 395  221 393.68  221 392  C 221 390.32  222.32 389  224 389  C 225.68 389  227 390.32  227 392  C 227 393.68  225.68 395  224 395  " fill-rule="nonzero" fill="#797979" stroke="none" />
</svg>