﻿<?xml version="1.0" encoding="utf-8"?>
<svg version="1.1" xmlns:xlink="http://www.w3.org/1999/xlink" width="12px" height="12px" viewBox="246 745  12 12" xmlns="http://www.w3.org/2000/svg">
  <path d="M 252 745  C 255.36 745  258 747.64  258 751  C 258 754.36  255.36 757  252 757  C 248.64 757  246 754.36  246 751  C 246 747.64  248.64 745  252 745  Z " fill-rule="nonzero" fill="#ffffff" stroke="none" />
  <path d="M 252 745.5  C 255.08 745.5  257.5 747.92  257.5 751  C 257.5 754.08  255.08 756.5  252 756.5  C 248.92 756.5  246.5 754.08  246.5 751  C 246.5 747.92  248.92 745.5  252 745.5  Z " stroke-width="1" stroke="#797979" fill="none" />
</svg>