﻿<?xml version="1.0" encoding="utf-8"?>
<svg version="1.1" xmlns:xlink="http://www.w3.org/1999/xlink" width="12px" height="12px" viewBox="363 745  12 12" xmlns="http://www.w3.org/2000/svg">
  <path d="M 369 745  C 372.36 745  375 747.64  375 751  C 375 754.36  372.36 757  369 757  C 365.64 757  363 754.36  363 751  C 363 747.64  365.64 745  369 745  Z " fill-rule="nonzero" fill="#f0f0f0" stroke="none" />
  <path d="M 369 745.5  C 372.08 745.5  374.5 747.92  374.5 751  C 374.5 754.08  372.08 756.5  369 756.5  C 365.92 756.5  363.5 754.08  363.5 751  C 363.5 747.92  365.92 745.5  369 745.5  Z " stroke-width="1" stroke="#797979" fill="none" />
</svg>