﻿<?xml version="1.0" encoding="utf-8"?>
<svg version="1.1" xmlns:xlink="http://www.w3.org/1999/xlink" width="83px" height="33px" xmlns="http://www.w3.org/2000/svg">
  <g transform="matrix(1 0 0 1 0 -83 )">
    <path d="M 0 28  L 0 5  C 0 2.2  2.2 0  5 0  L 78 0  C 80.8 0  83 2.2  83 5  L 83 28  C 83 30.8  80.8 33  78 33  L 58.1016949152543 33  L 5 33  C 2.2 33  0 30.8  0 28  Z " fill-rule="nonzero" fill="#169bd5" stroke="none" transform="matrix(1 0 0 1 0 83 )" />
  </g>
</svg>