﻿<?xml version="1.0" encoding="utf-8"?>
<svg version="1.1" xmlns:xlink="http://www.w3.org/1999/xlink" width="12px" height="12px" viewBox="246 711  12 12" xmlns="http://www.w3.org/2000/svg">
  <path d="M 252 711  C 255.36 711  258 713.64  258 717  C 258 720.36  255.36 723  252 723  C 248.64 723  246 720.36  246 717  C 246 713.64  248.64 711  252 711  Z " fill-rule="nonzero" fill="#f0f0f0" stroke="none" />
  <path d="M 252 711.5  C 255.08 711.5  257.5 713.92  257.5 717  C 257.5 720.08  255.08 722.5  252 722.5  C 248.92 722.5  246.5 720.08  246.5 717  C 246.5 713.92  248.92 711.5  252 711.5  Z " stroke-width="1" stroke="#797979" fill="none" />
  <path d="M 252 720  C 250.32 720  249 718.68  249 717  C 249 715.32  250.32 714  252 714  C 253.68 714  255 715.32  255 717  C 255 718.68  253.68 720  252 720  " fill-rule="nonzero" fill="#797979" stroke="none" />
</svg>