﻿<?xml version="1.0" encoding="utf-8"?>
<svg version="1.1" xmlns:xlink="http://www.w3.org/1999/xlink" width="16px" height="16px" viewBox="341 206  16 16" xmlns="http://www.w3.org/2000/svg">
  <path d="M 349 206  C 353.48 206  357 209.52  357 214  C 357 218.48  353.48 222  349 222  C 344.52 222  341 218.48  341 214  C 341 209.52  344.52 206  349 206  Z " fill-rule="nonzero" fill="#f0f0f0" stroke="none" />
  <path d="M 349 206.5  C 353.2 206.5  356.5 209.8  356.5 214  C 356.5 218.2  353.2 221.5  349 221.5  C 344.8 221.5  341.5 218.2  341.5 214  C 341.5 209.8  344.8 206.5  349 206.5  Z " stroke-width="1" stroke="#797979" fill="none" />
</svg>