﻿<?xml version="1.0" encoding="utf-8"?>
<svg version="1.1" xmlns:xlink="http://www.w3.org/1999/xlink" width="16px" height="16px" viewBox="556 256  16 16" xmlns="http://www.w3.org/2000/svg">
  <path d="M 564 256  C 568.48 256  572 259.52  572 264  C 572 268.48  568.48 272  564 272  C 559.52 272  556 268.48  556 264  C 556 259.52  559.52 256  564 256  Z " fill-rule="nonzero" fill="#ffffff" stroke="none" />
  <path d="M 564 256.5  C 568.2 256.5  571.5 259.8  571.5 264  C 571.5 268.2  568.2 271.5  564 271.5  C 559.8 271.5  556.5 268.2  556.5 264  C 556.5 259.8  559.8 256.5  564 256.5  Z " stroke-width="1" stroke="#797979" fill="none" />
  <path d="M 564 268  C 561.76 268  560 266.24  560 264  C 560 261.76  561.76 260  564 260  C 566.24 260  568 261.76  568 264  C 568 266.24  566.24 268  564 268  " fill-rule="nonzero" fill="#797979" stroke="none" />
</svg>