﻿<?xml version="1.0" encoding="utf-8"?>
<svg version="1.1" xmlns:xlink="http://www.w3.org/1999/xlink" width="14px" height="14px" viewBox="17 191  14 14" xmlns="http://www.w3.org/2000/svg">
  <path d="M 17.5 191.5  L 30.5 191.5  L 30.5 204.5  L 17.5 204.5  L 17.5 191.5  Z " fill-rule="nonzero" fill="#ffffff" stroke="none" />
  <path d="M 17.5 191.5  L 30.5 191.5  L 30.5 204.5  L 17.5 204.5  L 17.5 191.5  Z " stroke-width="1" stroke="#797979" fill="none" />
  <path d="M 20.5 198.5  L 23.5 201.5  " stroke-width="3" stroke="#797979" fill="none" />
  <path d="M 23.5 201.5  L 28.5 194.5  " stroke-width="3" stroke="#797979" fill="none" />
</svg>