﻿<?xml version="1.0" encoding="utf-8"?>
<svg version="1.1" xmlns:xlink="http://www.w3.org/1999/xlink" width="14px" height="14px" viewBox="17 128  14 14" xmlns="http://www.w3.org/2000/svg">
  <path d="M 17.5 128.5  L 30.5 128.5  L 30.5 141.5  L 17.5 141.5  L 17.5 128.5  Z " fill-rule="nonzero" fill="#f0f0f0" stroke="none" />
  <path d="M 17.5 128.5  L 30.5 128.5  L 30.5 141.5  L 17.5 141.5  L 17.5 128.5  Z " stroke-width="1" stroke="#797979" fill="none" />
  <path d="M 20.5 135.5  L 23.5 138.5  " stroke-width="3" stroke="#797979" fill="none" />
  <path d="M 23.5 138.5  L 28.5 131.5  " stroke-width="3" stroke="#797979" fill="none" />
</svg>