﻿<?xml version="1.0" encoding="utf-8"?>
<svg version="1.1" xmlns:xlink="http://www.w3.org/1999/xlink" width="2px" height="4px" preserveAspectRatio="xMidYMin meet" viewBox="1487 584  0 4" xmlns="http://www.w3.org/2000/svg">
  <path d="M 1492.8 486  L 1486.5 480  L 1480.2 486  L 1492.8 486  Z " fill-rule="nonzero" fill="#000000" stroke="none" />
  <path d="M 1486.5 485  L 1486.5 585  " stroke-width="1" stroke="#000000" fill="none" />
</svg>