﻿<?xml version="1.0" encoding="utf-8"?>
<svg version="1.1" xmlns:xlink="http://www.w3.org/1999/xlink" width="16px" height="16px" viewBox="663 206  16 16" xmlns="http://www.w3.org/2000/svg">
  <path d="M 671 206  C 675.48 206  679 209.52  679 214  C 679 218.48  675.48 222  671 222  C 666.52 222  663 218.48  663 214  C 663 209.52  666.52 206  671 206  Z " fill-rule="nonzero" fill="#ffffff" stroke="none" />
  <path d="M 671 206.5  C 675.2 206.5  678.5 209.8  678.5 214  C 678.5 218.2  675.2 221.5  671 221.5  C 666.8 221.5  663.5 218.2  663.5 214  C 663.5 209.8  666.8 206.5  671 206.5  Z " stroke-width="1" stroke="#797979" fill="none" />
</svg>