﻿<?xml version="1.0" encoding="utf-8"?>
<svg version="1.1" xmlns:xlink="http://www.w3.org/1999/xlink" width="16px" height="16px" viewBox="341 256  16 16" xmlns="http://www.w3.org/2000/svg">
  <path d="M 349 256  C 353.48 256  357 259.52  357 264  C 357 268.48  353.48 272  349 272  C 344.52 272  341 268.48  341 264  C 341 259.52  344.52 256  349 256  Z " fill-rule="nonzero" fill="#ffffff" stroke="none" />
  <path d="M 349 256.5  C 353.2 256.5  356.5 259.8  356.5 264  C 356.5 268.2  353.2 271.5  349 271.5  C 344.8 271.5  341.5 268.2  341.5 264  C 341.5 259.8  344.8 256.5  349 256.5  Z " stroke-width="1" stroke="#797979" fill="none" />
  <path d="M 349 268  C 346.76 268  345 266.24  345 264  C 345 261.76  346.76 260  349 260  C 351.24 260  353 261.76  353 264  C 353 266.24  351.24 268  349 268  " fill-rule="nonzero" fill="#797979" stroke="none" />
</svg>