﻿<?xml version="1.0" encoding="utf-8"?>
<svg version="1.1" xmlns:xlink="http://www.w3.org/1999/xlink" width="12px" height="12px" viewBox="377 499  12 12" xmlns="http://www.w3.org/2000/svg">
  <path d="M 383 499  C 386.36 499  389 501.64  389 505  C 389 508.36  386.36 511  383 511  C 379.64 511  377 508.36  377 505  C 377 501.64  379.64 499  383 499  Z " fill-rule="nonzero" fill="#f0f0f0" stroke="none" />
  <path d="M 383 499.5  C 386.08 499.5  388.5 501.92  388.5 505  C 388.5 508.08  386.08 510.5  383 510.5  C 379.92 510.5  377.5 508.08  377.5 505  C 377.5 501.92  379.92 499.5  383 499.5  Z " stroke-width="1" stroke="#797979" fill="none" />
  <path d="M 383 508  C 381.32 508  380 506.68  380 505  C 380 503.32  381.32 502  383 502  C 384.68 502  386 503.32  386 505  C 386 506.68  384.68 508  383 508  " fill-rule="nonzero" fill="#797979" stroke="none" />
</svg>