﻿<?xml version="1.0" encoding="utf-8"?>
<svg version="1.1" xmlns:xlink="http://www.w3.org/1999/xlink" width="12px" height="12px" viewBox="83 261  12 12" xmlns="http://www.w3.org/2000/svg">
  <path d="M 89 261  C 92.36 261  95 263.64  95 267  C 95 270.36  92.36 273  89 273  C 85.64 273  83 270.36  83 267  C 83 263.64  85.64 261  89 261  Z " fill-rule="nonzero" fill="#f0f0f0" stroke="none" />
  <path d="M 89 261.5  C 92.08 261.5  94.5 263.92  94.5 267  C 94.5 270.08  92.08 272.5  89 272.5  C 85.92 272.5  83.5 270.08  83.5 267  C 83.5 263.92  85.92 261.5  89 261.5  Z " stroke-width="1" stroke="#797979" fill="none" />
  <path d="M 89 270  C 87.32 270  86 268.68  86 267  C 86 265.32  87.32 264  89 264  C 90.68 264  92 265.32  92 267  C 92 268.68  90.68 270  89 270  " fill-rule="nonzero" fill="#797979" stroke="none" />
</svg>