﻿<?xml version="1.0" encoding="utf-8"?>
<svg version="1.1" xmlns:xlink="http://www.w3.org/1999/xlink" width="12px" height="12px" viewBox="154 368  12 12" xmlns="http://www.w3.org/2000/svg">
  <path d="M 160 368  C 163.36 368  166 370.64  166 374  C 166 377.36  163.36 380  160 380  C 156.64 380  154 377.36  154 374  C 154 370.64  156.64 368  160 368  Z " fill-rule="nonzero" fill="#f0f0f0" stroke="none" />
  <path d="M 160 368.5  C 163.08 368.5  165.5 370.92  165.5 374  C 165.5 377.08  163.08 379.5  160 379.5  C 156.92 379.5  154.5 377.08  154.5 374  C 154.5 370.92  156.92 368.5  160 368.5  Z " stroke-width="1" stroke="#797979" fill="none" />
</svg>