﻿<?xml version="1.0" encoding="utf-8"?>
<svg version="1.1" xmlns:xlink="http://www.w3.org/1999/xlink" width="12px" height="12px" viewBox="154 220  12 12" xmlns="http://www.w3.org/2000/svg">
  <path d="M 160 220  C 163.36 220  166 222.64  166 226  C 166 229.36  163.36 232  160 232  C 156.64 232  154 229.36  154 226  C 154 222.64  156.64 220  160 220  Z " fill-rule="nonzero" fill="#f0f0f0" stroke="none" />
  <path d="M 160 220.5  C 163.08 220.5  165.5 222.92  165.5 226  C 165.5 229.08  163.08 231.5  160 231.5  C 156.92 231.5  154.5 229.08  154.5 226  C 154.5 222.92  156.92 220.5  160 220.5  Z " stroke-width="1" stroke="#797979" fill="none" />
  <path d="M 160 229  C 158.32 229  157 227.68  157 226  C 157 224.32  158.32 223  160 223  C 161.68 223  163 224.32  163 226  C 163 227.68  161.68 229  160 229  " fill-rule="nonzero" fill="#797979" stroke="none" />
</svg>