﻿<?xml version="1.0" encoding="utf-8"?>
<svg version="1.1" xmlns:xlink="http://www.w3.org/1999/xlink" width="12px" height="12px" viewBox="83 299  12 12" xmlns="http://www.w3.org/2000/svg">
  <path d="M 89 299  C 92.36 299  95 301.64  95 305  C 95 308.36  92.36 311  89 311  C 85.64 311  83 308.36  83 305  C 83 301.64  85.64 299  89 299  Z " fill-rule="nonzero" fill="#ffffff" stroke="none" />
  <path d="M 89 299.5  C 92.08 299.5  94.5 301.92  94.5 305  C 94.5 308.08  92.08 310.5  89 310.5  C 85.92 310.5  83.5 308.08  83.5 305  C 83.5 301.92  85.92 299.5  89 299.5  Z " stroke-width="1" stroke="#797979" fill="none" />
</svg>