﻿<?xml version="1.0" encoding="utf-8"?>
<svg version="1.1" xmlns:xlink="http://www.w3.org/1999/xlink" width="12px" height="12px" viewBox="154 333  12 12" xmlns="http://www.w3.org/2000/svg">
  <path d="M 160 333  C 163.36 333  166 335.64  166 339  C 166 342.36  163.36 345  160 345  C 156.64 345  154 342.36  154 339  C 154 335.64  156.64 333  160 333  Z " fill-rule="nonzero" fill="#ffffff" stroke="none" />
  <path d="M 160 333.5  C 163.08 333.5  165.5 335.92  165.5 339  C 165.5 342.08  163.08 344.5  160 344.5  C 156.92 344.5  154.5 342.08  154.5 339  C 154.5 335.92  156.92 333.5  160 333.5  Z " stroke-width="1" stroke="#797979" fill="none" />
</svg>