﻿<?xml version="1.0" encoding="utf-8"?>
<svg version="1.1" xmlns:xlink="http://www.w3.org/1999/xlink" width="12px" height="12px" viewBox="374 418  12 12" xmlns="http://www.w3.org/2000/svg">
  <path d="M 380 418  C 383.36 418  386 420.64  386 424  C 386 427.36  383.36 430  380 430  C 376.64 430  374 427.36  374 424  C 374 420.64  376.64 418  380 418  Z " fill-rule="nonzero" fill="#ffffff" stroke="none" />
  <path d="M 380 418.5  C 383.08 418.5  385.5 420.92  385.5 424  C 385.5 427.08  383.08 429.5  380 429.5  C 376.92 429.5  374.5 427.08  374.5 424  C 374.5 420.92  376.92 418.5  380 418.5  Z " stroke-width="1" stroke="#797979" fill="none" />
  <path d="M 380 427  C 378.32 427  377 425.68  377 424  C 377 422.32  378.32 421  380 421  C 381.68 421  383 422.32  383 424  C 383 425.68  381.68 427  380 427  " fill-rule="nonzero" fill="#797979" stroke="none" />
</svg>