﻿<?xml version="1.0" encoding="utf-8"?>
<svg version="1.1" xmlns:xlink="http://www.w3.org/1999/xlink" width="12px" height="12px" viewBox="257 418  12 12" xmlns="http://www.w3.org/2000/svg">
  <path d="M 263 418  C 266.36 418  269 420.64  269 424  C 269 427.36  266.36 430  263 430  C 259.64 430  257 427.36  257 424  C 257 420.64  259.64 418  263 418  Z " fill-rule="nonzero" fill="#ffffff" stroke="none" />
  <path d="M 263 418.5  C 266.08 418.5  268.5 420.92  268.5 424  C 268.5 427.08  266.08 429.5  263 429.5  C 259.92 429.5  257.5 427.08  257.5 424  C 257.5 420.92  259.92 418.5  263 418.5  Z " stroke-width="1" stroke="#797979" fill="none" />
  <path d="M 263 427  C 261.32 427  260 425.68  260 424  C 260 422.32  261.32 421  263 421  C 264.68 421  266 422.32  266 424  C 266 425.68  264.68 427  263 427  " fill-rule="nonzero" fill="#797979" stroke="none" />
</svg>