﻿<?xml version="1.0" encoding="utf-8"?>
<svg version="1.1" xmlns:xlink="http://www.w3.org/1999/xlink" width="85px" height="23px" xmlns="http://www.w3.org/2000/svg">
  <g transform="matrix(1 0 0 1 -1092 -108 )">
    <path d="M 0 18  L 0 5  C 0 2.2  2.20000000000005 0  5 0  L 43.9710144927537 0  L 80 0  C 82.8 0  85 2.2  85 5  L 85 18  C 85 20.8  82.8 23  80 23  L 57.0144927536232 23  L 5 23  C 2.20000000000005 23  0 20.8  0 18  Z " fill-rule="nonzero" fill="#169bd5" stroke="none" transform="matrix(1 0 0 1 1092 108 )" />
  </g>
</svg>